02.06.2022;00:15;0.36
02.06.2022;00:30;0.36
02.06.2022;00:45;0.36
02.06.2022;01:00;0.36
02.06.2022;01:15;0.36
02.06.2022;01:30;0.36
02.06.2022;01:45;0.36
02.06.2022;02:00;0.36
02.06.2022;02:15;0.36
02.06.2022;02:30;0.36
02.06.2022;02:45;0.36
02.06.2022;03:00;0.36
02.06.2022;03:15;0.36
02.06.2022;03:30;0.36
02.06.2022;03:45;0.36
02.06.2022;04:00;0.36
02.06.2022;04:15;0.36
02.06.2022;04:30;0.36
02.06.2022;04:45;0.35
02.06.2022;05:00;0.35
02.06.2022;05:15;0.35
02.06.2022;05:30;0.35
02.06.2022;05:45;0.35
02.06.2022;06:00;0.35
02.06.2022;06:15;0.35
02.06.2022;06:30;0.35
02.06.2022;06:45;0.35
02.06.2022;07:00;0.35
02.06.2022;07:15;0.35
02.06.2022;07:30;0.35
02.06.2022;07:45;0.35
02.06.2022;08:00;0.35
02.06.2022;08:15;0.35
02.06.2022;08:30;0.35
02.06.2022;08:45;0.35
02.06.2022;09:00;0.35
02.06.2022;09:15;0.35
02.06.2022;09:30;0.35
02.06.2022;09:45;0.35
02.06.2022;10:00;0.35
02.06.2022;10:15;0.35
02.06.2022;10:30;0.35
02.06.2022;10:45;0.34
02.06.2022;11:00;0.34
02.06.2022;11:15;0.34
02.06.2022;11:30;0.34
02.06.2022;11:45;0.34
02.06.2022;12:00;0.34
02.06.2022;12:15;0.34
02.06.2022;12:30;0.34
02.06.2022;12:45;0.34
02.06.2022;13:00;0.34
02.06.2022;13:15;0.34
02.06.2022;13:30;0.34
02.06.2022;13:45;0.34
02.06.2022;14:00;0.34
02.06.2022;14:15;0.34
02.06.2022;14:30;0.34
02.06.2022;14:45;0.34
02.06.2022;15:00;0.34
02.06.2022;15:15;0.34
02.06.2022;15:30;0.34
02.06.2022;15:45;0.34
02.06.2022;16:00;0.34
02.06.2022;16:15;0.34
02.06.2022;16:30;0.35
02.06.2022;16:45;0.35
02.06.2022;17:00;0.35
02.06.2022;17:15;0.35
02.06.2022;17:30;0.35
02.06.2022;17:45;0.35
02.06.2022;18:00;0.35
02.06.2022;18:15;0.35
02.06.2022;18:30;0.35
02.06.2022;18:45;0.35
02.06.2022;19:00;0.35
02.06.2022;19:15;0.35
02.06.2022;19:30;0.35
02.06.2022;19:45;0.36
02.06.2022;20:00;0.36
02.06.2022;20:15;0.36
02.06.2022;20:30;0.36
02.06.2022;20:45;0.36
02.06.2022;21:00;0.36
02.06.2022;21:15;0.36
02.06.2022;21:30;0.36
02.06.2022;21:45;0.36
02.06.2022;22:00;0.36
02.06.2022;22:15;0.36
02.06.2022;22:30;0.36
02.06.2022;22:45;0.36
02.06.2022;23:00;0.36
02.06.2022;23:15;0.36
02.06.2022;23:30;0.36
02.06.2022;23:45;0.36
03.06.2022;00:00;0.36
03.06.2022;00:15;0.36
03.06.2022;00:30;0.36
03.06.2022;00:45;0.36
03.06.2022;01:00;0.35
03.06.2022;01:15;0.35
03.06.2022;01:30;0.35
03.06.2022;01:45;0.35
03.06.2022;02:00;0.35
03.06.2022;02:15;0.35
03.06.2022;02:30;0.35
03.06.2022;02:45;0.35
03.06.2022;03:00;0.35
03.06.2022;03:15;0.35
03.06.2022;03:30;0.35
03.06.2022;03:45;0.35
03.06.2022;04:00;0.35
03.06.2022;04:15;0.35
03.06.2022;04:30;0.35
03.06.2022;04:45;0.35
03.06.2022;05:00;0.35
03.06.2022;05:15;0.35
03.06.2022;05:30;0.35
03.06.2022;05:45;0.35
03.06.2022;06:00;0.35
03.06.2022;06:15;0.35
03.06.2022;06:30;0.35
03.06.2022;06:45;0.35
03.06.2022;07:00;0.35
03.06.2022;07:15;0.35
03.06.2022;07:30;0.35
03.06.2022;07:45;0.35
03.06.2022;08:00;0.35
03.06.2022;08:15;0.34
03.06.2022;08:30;0.35
03.06.2022;08:45;0.34
03.06.2022;09:00;0.34
03.06.2022;09:15;0.34
03.06.2022;09:30;0.34
03.06.2022;09:45;0.34
03.06.2022;10:00;0.34
03.06.2022;10:15;0.34
03.06.2022;10:30;0.34
03.06.2022;10:45;0.34
03.06.2022;11:00;0.34
03.06.2022;11:15;0.34
03.06.2022;11:30;0.34
03.06.2022;11:45;0.34
03.06.2022;12:00;0.34
03.06.2022;12:15;0.34
03.06.2022;12:30;0.34
03.06.2022;12:45;0.34
03.06.2022;13:00;0.34
03.06.2022;13:15;0.34
03.06.2022;13:30;0.34
03.06.2022;13:45;0.34
03.06.2022;14:00;0.34
03.06.2022;14:15;0.34
03.06.2022;14:30;0.34
03.06.2022;14:45;0.34
03.06.2022;15:00;0.34
03.06.2022;15:15;0.34
03.06.2022;15:30;0.34
03.06.2022;15:45;0.34
03.06.2022;16:00;0.34
03.06.2022;16:15;0.34
03.06.2022;16:30;0.34
03.06.2022;16:45;0.34
03.06.2022;17:00;0.34
03.06.2022;17:15;0.35
03.06.2022;17:30;0.35
03.06.2022;17:45;0.35
03.06.2022;18:00;0.35
03.06.2022;18:15;0.35
03.06.2022;18:30;0.35
03.06.2022;18:45;0.35
03.06.2022;19:00;0.35
03.06.2022;19:15;0.35
03.06.2022;19:30;0.35
03.06.2022;19:45;0.35
03.06.2022;20:00;0.35
03.06.2022;20:15;0.35
03.06.2022;20:30;0.35
03.06.2022;20:45;0.35
03.06.2022;21:00;0.35
03.06.2022;21:15;0.35
03.06.2022;21:30;0.35
03.06.2022;21:45;0.35
03.06.2022;22:00;0.35
03.06.2022;22:15;0.35
03.06.2022;22:30;0.35
03.06.2022;22:45;0.35
03.06.2022;23:00;0.35
03.06.2022;23:15;0.35
03.06.2022;23:30;0.35
03.06.2022;23:45;0.35
04.06.2022;00:00;0.35
04.06.2022;00:15;0.35
04.06.2022;00:30;0.35
04.06.2022;00:45;0.35
04.06.2022;01:00;0.35
04.06.2022;01:15;0.36
04.06.2022;01:30;0.36
04.06.2022;01:45;0.36
04.06.2022;02:00;0.36
04.06.2022;02:15;0.36
04.06.2022;02:30;0.36
04.06.2022;02:45;0.36
04.06.2022;03:00;0.37
04.06.2022;03:15;0.37
04.06.2022;03:30;0.37
04.06.2022;03:45;0.38
04.06.2022;04:00;0.38
04.06.2022;04:15;0.39
04.06.2022;04:30;0.39
04.06.2022;04:45;0.4
04.06.2022;05:00;0.4
04.06.2022;05:15;0.4
04.06.2022;05:30;0.4
04.06.2022;05:45;0.4
04.06.2022;06:00;0.4
04.06.2022;06:15;0.4
04.06.2022;06:30;0.4
04.06.2022;06:45;0.4
04.06.2022;07:00;0.4
04.06.2022;07:15;0.4
04.06.2022;07:30;0.4
04.06.2022;07:45;0.39
04.06.2022;08:00;0.39
04.06.2022;08:15;0.39
04.06.2022;08:30;0.39
04.06.2022;08:45;0.39
04.06.2022;09:00;0.39
04.06.2022;09:15;0.38
04.06.2022;09:30;0.38
04.06.2022;09:45;0.38
04.06.2022;10:00;0.38
04.06.2022;10:15;0.38
04.06.2022;10:30;0.38
04.06.2022;10:45;0.38
04.06.2022;11:00;0.37
04.06.2022;11:15;0.37
04.06.2022;11:30;0.37
04.06.2022;11:45;0.37
04.06.2022;12:00;0.37
04.06.2022;12:15;0.37
04.06.2022;12:30;0.37
04.06.2022;12:45;0.37
04.06.2022;13:00;0.37
04.06.2022;13:15;0.37
04.06.2022;13:30;0.37
04.06.2022;13:45;0.36
04.06.2022;14:00;0.36
04.06.2022;14:15;0.36
04.06.2022;14:30;0.36
04.06.2022;14:45;0.36
04.06.2022;15:00;0.36
04.06.2022;15:15;0.36
04.06.2022;15:30;0.36
04.06.2022;15:45;0.36
04.06.2022;16:00;0.37
04.06.2022;16:15;0.37
04.06.2022;16:30;0.37
04.06.2022;16:45;0.37
04.06.2022;17:00;0.37
04.06.2022;17:15;0.37
04.06.2022;17:30;0.37
04.06.2022;17:45;0.37
04.06.2022;18:00;0.37
04.06.2022;18:15;0.37
04.06.2022;18:30;0.37
04.06.2022;18:45;0.37
04.06.2022;19:00;0.37
04.06.2022;19:15;0.37
04.06.2022;19:30;0.36
04.06.2022;19:45;0.36
04.06.2022;20:00;0.36
04.06.2022;20:15;0.36
04.06.2022;20:30;0.36
04.06.2022;20:45;0.36
04.06.2022;21:00;0.36
04.06.2022;21:15;0.36
04.06.2022;21:30;0.36
04.06.2022;21:45;0.36
04.06.2022;22:00;0.36
04.06.2022;22:15;0.36
04.06.2022;22:30;0.36
04.06.2022;22:45;0.36
04.06.2022;23:00;0.36
04.06.2022;23:15;0.36
04.06.2022;23:30;0.36
04.06.2022;23:45;0.36
05.06.2022;00:00;0.35
05.06.2022;00:15;0.35
05.06.2022;00:30;0.35
05.06.2022;00:45;0.35
05.06.2022;01:00;0.35
05.06.2022;01:15;0.35
05.06.2022;01:30;0.35
05.06.2022;01:45;0.35
05.06.2022;02:00;0.35
05.06.2022;02:15;0.35
05.06.2022;02:30;0.35
05.06.2022;02:45;0.35
05.06.2022;03:00;0.35
05.06.2022;03:15;0.35
05.06.2022;03:30;0.35
05.06.2022;03:45;0.35
05.06.2022;04:00;0.35
05.06.2022;04:15;0.35
05.06.2022;04:30;0.35
05.06.2022;04:45;0.35
05.06.2022;05:00;0.35
05.06.2022;05:15;0.35
05.06.2022;05:30;0.34
05.06.2022;05:45;0.34
05.06.2022;06:00;0.34
05.06.2022;06:15;0.34
05.06.2022;06:30;0.34
05.06.2022;06:45;0.34
05.06.2022;07:00;0.34
05.06.2022;07:15;0.34
05.06.2022;07:30;0.34
05.06.2022;07:45;0.34
05.06.2022;08:00;0.34
05.06.2022;08:15;0.34
05.06.2022;08:30;0.34
05.06.2022;08:45;0.34
05.06.2022;09:00;0.34
05.06.2022;09:15;0.34
05.06.2022;09:30;0.34
05.06.2022;09:45;0.34
05.06.2022;10:00;0.34
05.06.2022;10:15;0.34
05.06.2022;10:30;0.34
05.06.2022;10:45;0.34
05.06.2022;11:00;0.34
05.06.2022;11:15;0.34
05.06.2022;11:30;0.34
05.06.2022;11:45;0.34
05.06.2022;12:00;0.34
05.06.2022;12:15;0.34
05.06.2022;12:30;0.34
05.06.2022;12:45;0.34
05.06.2022;13:00;0.34
05.06.2022;13:15;0.33
05.06.2022;13:30;0.33
05.06.2022;13:45;0.33
05.06.2022;14:00;0.33
05.06.2022;14:15;0.33
05.06.2022;14:30;0.33
05.06.2022;14:45;0.33
05.06.2022;15:00;0.33
05.06.2022;15:15;0.33
05.06.2022;15:30;0.33
05.06.2022;15:45;0.33
05.06.2022;16:00;0.33
05.06.2022;16:15;0.33
05.06.2022;16:30;0.34
05.06.2022;16:45;0.34
05.06.2022;17:00;0.34
05.06.2022;17:15;0.34
05.06.2022;17:30;0.34
05.06.2022;17:45;0.34
05.06.2022;18:00;0.34
05.06.2022;18:15;0.34
05.06.2022;18:30;0.34
05.06.2022;18:45;0.34
05.06.2022;19:00;0.34
05.06.2022;19:15;0.34
05.06.2022;19:30;0.34
05.06.2022;19:45;0.35
05.06.2022;20:00;0.35
05.06.2022;20:15;0.35
05.06.2022;20:30;0.35
05.06.2022;20:45;0.35
05.06.2022;21:00;0.35
05.06.2022;21:15;0.35
05.06.2022;21:30;0.35
05.06.2022;21:45;0.35
05.06.2022;22:00;0.35
05.06.2022;22:15;0.35
05.06.2022;22:30;0.35
05.06.2022;22:45;0.36
05.06.2022;23:00;0.37
05.06.2022;23:15;0.37
05.06.2022;23:30;0.37
05.06.2022;23:45;0.38
06.06.2022;00:00;0.38
06.06.2022;00:15;0.38
06.06.2022;00:30;0.38
06.06.2022;00:45;0.38
06.06.2022;01:00;0.38
06.06.2022;01:15;0.38
06.06.2022;01:30;0.37
06.06.2022;01:45;0.37
06.06.2022;02:00;0.37
06.06.2022;02:15;0.37
06.06.2022;02:30;0.37
06.06.2022;02:45;0.37
06.06.2022;03:00;0.37
06.06.2022;03:15;0.37
06.06.2022;03:30;0.37
06.06.2022;03:45;0.37
06.06.2022;04:00;0.36
06.06.2022;04:15;0.36
06.06.2022;04:30;0.36
06.06.2022;04:45;0.36
06.06.2022;05:00;0.36
06.06.2022;05:15;0.36
06.06.2022;05:30;0.36
06.06.2022;05:45;0.36
06.06.2022;06:00;0.36
06.06.2022;06:15;0.36
06.06.2022;06:30;0.36
06.06.2022;06:45;0.36
06.06.2022;07:00;0.36
06.06.2022;07:15;0.36
06.06.2022;07:30;0.35
06.06.2022;07:45;0.35
06.06.2022;08:00;0.35
06.06.2022;08:15;0.35
06.06.2022;08:30;0.35
06.06.2022;08:45;0.35
06.06.2022;09:00;0.35
06.06.2022;09:15;0.35
06.06.2022;09:30;0.35
06.06.2022;09:45;0.35
06.06.2022;10:00;0.35
06.06.2022;10:15;0.35
06.06.2022;10:30;0.35
06.06.2022;10:45;0.35
06.06.2022;11:00;0.35
06.06.2022;11:15;0.35
06.06.2022;11:30;0.35
06.06.2022;11:45;0.35
06.06.2022;12:00;0.35
06.06.2022;12:15;0.35
06.06.2022;12:30;0.34
06.06.2022;12:45;0.34
06.06.2022;13:00;0.34
06.06.2022;13:15;0.34
06.06.2022;13:30;0.34
06.06.2022;13:45;0.34
06.06.2022;14:00;0.34
06.06.2022;14:15;0.34
06.06.2022;14:30;0.34
06.06.2022;14:45;0.34
06.06.2022;15:00;0.34
06.06.2022;15:15;0.34
06.06.2022;15:30;0.34
06.06.2022;15:45;0.34
06.06.2022;16:00;0.34
06.06.2022;16:15;0.34
06.06.2022;16:30;0.34
06.06.2022;16:45;0.34
06.06.2022;17:00;0.34
06.06.2022;17:15;0.34
06.06.2022;17:30;0.34
06.06.2022;17:45;0.34
06.06.2022;18:00;0.34
06.06.2022;18:15;0.34
06.06.2022;18:30;0.34
06.06.2022;18:45;0.34
06.06.2022;19:00;0.34
06.06.2022;19:15;0.34
06.06.2022;19:30;0.34
06.06.2022;19:45;0.34
06.06.2022;20:00;0.34
06.06.2022;20:15;0.34
06.06.2022;20:30;0.34
06.06.2022;20:45;0.34
06.06.2022;21:00;0.34
06.06.2022;21:15;0.34
06.06.2022;21:30;0.34
06.06.2022;21:45;0.34
06.06.2022;22:00;0.34
06.06.2022;22:15;0.34
06.06.2022;22:30;0.34
06.06.2022;22:45;0.34
06.06.2022;23:00;0.34
06.06.2022;23:15;0.34
06.06.2022;23:30;0.34
06.06.2022;23:45;0.34
07.06.2022;00:00;0.34
07.06.2022;00:15;0.34
07.06.2022;00:30;0.34
07.06.2022;00:45;0.34
07.06.2022;01:00;0.34
07.06.2022;01:15;0.34
07.06.2022;01:30;0.34
07.06.2022;01:45;0.34
07.06.2022;02:00;0.34
07.06.2022;02:15;0.34
07.06.2022;02:30;0.34
07.06.2022;02:45;0.33
07.06.2022;03:00;0.34
07.06.2022;03:15;0.33
07.06.2022;03:30;0.33
07.06.2022;03:45;0.33
07.06.2022;04:00;0.33
07.06.2022;04:15;0.33
07.06.2022;04:30;0.33
07.06.2022;04:45;0.33
07.06.2022;05:00;0.33
07.06.2022;05:15;0.33
07.06.2022;05:30;0.33
07.06.2022;05:45;0.33
07.06.2022;06:00;0.33
07.06.2022;06:15;0.33
07.06.2022;06:30;0.33
07.06.2022;06:45;0.33
07.06.2022;07:00;0.33
07.06.2022;07:15;0.33
07.06.2022;07:30;0.33
07.06.2022;07:45;0.33
07.06.2022;08:00;0.33
07.06.2022;08:15;0.33
07.06.2022;08:30;0.33
07.06.2022;08:45;0.33
07.06.2022;09:00;0.33
07.06.2022;09:15;0.33
07.06.2022;09:30;0.33
07.06.2022;09:45;0.33
07.06.2022;10:00;0.33
07.06.2022;10:15;0.33
07.06.2022;10:30;0.33
07.06.2022;10:45;0.33
07.06.2022;11:00;0.33
07.06.2022;11:15;0.33
07.06.2022;11:30;0.33
07.06.2022;11:45;0.33
07.06.2022;12:00;0.33
07.06.2022;12:15;0.33
07.06.2022;12:30;0.33
07.06.2022;12:45;0.32
07.06.2022;13:00;0.33
07.06.2022;13:15;0.32
07.06.2022;13:30;0.32
07.06.2022;13:45;0.32
07.06.2022;14:00;0.32
07.06.2022;14:15;0.32
07.06.2022;14:30;0.32
07.06.2022;14:45;0.32
07.06.2022;15:00;0.32
07.06.2022;15:15;0.32
07.06.2022;15:30;0.32
07.06.2022;15:45;0.32
07.06.2022;16:00;0.32
07.06.2022;16:15;0.32
07.06.2022;16:30;0.32
07.06.2022;16:45;0.32
07.06.2022;17:00;0.32
07.06.2022;17:15;0.32
07.06.2022;17:30;0.32
07.06.2022;17:45;0.32
07.06.2022;18:00;0.32
07.06.2022;18:15;0.32
07.06.2022;18:30;0.32
07.06.2022;18:45;0.32
07.06.2022;19:00;0.32
07.06.2022;19:15;0.32
07.06.2022;19:30;0.33
07.06.2022;19:45;0.33
07.06.2022;20:00;0.33
07.06.2022;20:15;0.33
07.06.2022;20:30;0.34
07.06.2022;20:45;0.34
07.06.2022;21:00;0.34
07.06.2022;21:15;0.34
07.06.2022;21:30;0.34
07.06.2022;21:45;0.34
07.06.2022;22:00;0.34
07.06.2022;22:15;0.34
07.06.2022;22:30;0.34
07.06.2022;22:45;0.34
07.06.2022;23:00;0.34
07.06.2022;23:15;0.34
07.06.2022;23:30;0.34
07.06.2022;23:45;0.34
08.06.2022;00:00;0.34
08.06.2022;00:15;0.34
08.06.2022;00:30;0.34
08.06.2022;00:45;0.34
08.06.2022;01:00;0.34
08.06.2022;01:15;0.34
08.06.2022;01:30;0.34
08.06.2022;01:45;0.34
08.06.2022;02:00;0.34
08.06.2022;02:15;0.34
08.06.2022;02:30;0.34
08.06.2022;02:45;0.34
08.06.2022;03:00;0.34
08.06.2022;03:15;0.34
08.06.2022;03:30;0.34
08.06.2022;03:45;0.34
08.06.2022;04:00;0.35
08.06.2022;04:15;0.36
08.06.2022;04:30;0.36
08.06.2022;04:45;0.36
08.06.2022;05:00;0.36
08.06.2022;05:15;0.36
08.06.2022;05:30;0.36
08.06.2022;05:45;0.36
08.06.2022;06:00;0.36
08.06.2022;06:15;0.36
08.06.2022;06:30;0.36
08.06.2022;06:45;0.36
08.06.2022;07:00;0.36
08.06.2022;07:15;0.36
08.06.2022;07:30;0.36
08.06.2022;07:45;0.36
08.06.2022;08:00;0.36
08.06.2022;08:15;0.36
08.06.2022;08:30;0.36
08.06.2022;08:45;0.35
08.06.2022;09:00;0.35
08.06.2022;09:15;0.35
08.06.2022;09:30;0.35
08.06.2022;09:45;0.35
08.06.2022;10:00;0.35
08.06.2022;10:15;0.35
08.06.2022;10:30;0.35
08.06.2022;10:45;0.35
08.06.2022;11:00;0.35
08.06.2022;11:15;0.35
08.06.2022;11:30;0.35
08.06.2022;11:45;0.35
08.06.2022;12:00;0.35
08.06.2022;12:15;0.35
08.06.2022;12:30;0.35
08.06.2022;12:45;0.35
08.06.2022;13:00;0.35
08.06.2022;13:15;0.35
08.06.2022;13:30;0.35
08.06.2022;13:45;0.35
08.06.2022;14:00;0.35
08.06.2022;14:15;0.35
08.06.2022;14:30;0.35
08.06.2022;14:45;0.35
08.06.2022;15:00;0.35
08.06.2022;15:15;0.35
08.06.2022;15:30;0.35
08.06.2022;15:45;0.35
08.06.2022;16:00;0.35
08.06.2022;16:15;0.35
08.06.2022;16:30;0.35
08.06.2022;16:45;0.34
08.06.2022;17:00;0.35
08.06.2022;17:15;0.35
08.06.2022;17:30;0.35
08.06.2022;17:45;0.35
08.06.2022;18:00;0.35
08.06.2022;18:15;0.35
08.06.2022;18:30;0.35
08.06.2022;18:45;0.35
08.06.2022;19:00;0.35
08.06.2022;19:15;0.35
08.06.2022;19:30;0.35
08.06.2022;19:45;0.35
08.06.2022;20:00;0.35
08.06.2022;20:15;0.35
08.06.2022;20:30;0.35
08.06.2022;20:45;0.35
08.06.2022;21:00;0.35
08.06.2022;21:15;0.35
08.06.2022;21:30;0.35
08.06.2022;21:45;0.35
08.06.2022;22:00;0.35
08.06.2022;22:15;0.35
08.06.2022;22:30;0.35
08.06.2022;22:45;0.35
08.06.2022;23:00;0.35
08.06.2022;23:15;0.34
08.06.2022;23:30;0.34
08.06.2022;23:45;0.34
09.06.2022;00:00;0.34
09.06.2022;00:15;0.34
09.06.2022;00:30;0.34
09.06.2022;00:45;0.34
09.06.2022;01:00;0.34
09.06.2022;01:15;0.34
09.06.2022;01:30;0.34
09.06.2022;01:45;0.34
09.06.2022;02:00;0.34
09.06.2022;02:15;0.34
09.06.2022;02:30;0.34
09.06.2022;02:45;0.34
09.06.2022;03:00;0.34
09.06.2022;03:15;0.34
09.06.2022;03:30;0.34
09.06.2022;03:45;0.34
09.06.2022;04:00;0.34
09.06.2022;04:15;0.34
09.06.2022;04:30;0.34
09.06.2022;04:45;0.34
09.06.2022;05:00;0.34
09.06.2022;05:15;0.34
09.06.2022;05:30;0.34
09.06.2022;05:45;0.33
09.06.2022;06:00;0.33
09.06.2022;06:15;0.33
09.06.2022;06:30;0.33
09.06.2022;06:45;0.33
09.06.2022;07:00;0.33
09.06.2022;07:15;0.33
09.06.2022;07:30;0.33
09.06.2022;07:45;0.33
09.06.2022;08:00;0.33
09.06.2022;08:15;0.33
09.06.2022;08:30;0.33
09.06.2022;08:45;0.33
09.06.2022;09:00;0.33
09.06.2022;09:15;0.33
09.06.2022;09:30;0.33
09.06.2022;09:45;0.33
09.06.2022;10:00;0.33
09.06.2022;10:15;0.33
09.06.2022;10:30;0.33
09.06.2022;10:45;0.33
09.06.2022;11:00;0.33
09.06.2022;11:15;0.33
09.06.2022;11:30;0.33
09.06.2022;11:45;0.33
09.06.2022;12:00;0.33
09.06.2022;12:15;0.33
09.06.2022;12:30;0.33
09.06.2022;12:45;0.33
09.06.2022;13:00;0.33
09.06.2022;13:15;0.33
09.06.2022;13:30;0.33
09.06.2022;13:45;0.33
09.06.2022;14:00;0.33
09.06.2022;14:15;0.33
09.06.2022;14:30;0.33
09.06.2022;14:45;0.33
09.06.2022;15:00;0.33
09.06.2022;15:15;0.32
09.06.2022;15:30;0.32
09.06.2022;15:45;0.32
09.06.2022;16:00;0.32
09.06.2022;16:15;0.33
09.06.2022;16:30;0.32
09.06.2022;16:45;0.32
09.06.2022;17:00;0.32
09.06.2022;17:15;0.33
09.06.2022;17:30;0.32
09.06.2022;17:45;0.32
09.06.2022;18:00;0.33
09.06.2022;18:15;0.32
09.06.2022;18:30;0.32
09.06.2022;18:45;0.32
09.06.2022;19:00;0.32
09.06.2022;19:15;0.32
09.06.2022;19:30;0.32
09.06.2022;19:45;0.32
09.06.2022;20:00;0.33
09.06.2022;20:15;0.33
09.06.2022;20:30;0.33
09.06.2022;20:45;0.33
09.06.2022;21:00;0.33
09.06.2022;21:15;0.33
09.06.2022;21:30;0.33
09.06.2022;21:45;0.35
09.06.2022;22:00;0.35
09.06.2022;22:15;0.36
09.06.2022;22:30;0.36
09.06.2022;22:45;0.36
09.06.2022;23:00;0.36
09.06.2022;23:15;0.36
09.06.2022;23:30;0.37
09.06.2022;23:45;0.37
10.06.2022;00:00;0.37
10.06.2022;00:15;0.38
10.06.2022;00:30;0.38
10.06.2022;00:45;0.38
10.06.2022;01:00;0.39
10.06.2022;01:15;0.39
10.06.2022;01:30;0.39
10.06.2022;01:45;0.39
10.06.2022;02:00;0.39
10.06.2022;02:15;0.39
10.06.2022;02:30;0.39
10.06.2022;02:45;0.39
10.06.2022;03:00;0.39
10.06.2022;03:15;0.39
10.06.2022;03:30;0.39
10.06.2022;03:45;0.38
10.06.2022;04:00;0.38
10.06.2022;04:15;0.38
10.06.2022;04:30;0.38
10.06.2022;04:45;0.38
10.06.2022;05:00;0.38
10.06.2022;05:15;0.38
10.06.2022;05:30;0.38
10.06.2022;05:45;0.38
10.06.2022;06:00;0.38
10.06.2022;06:15;0.38
10.06.2022;06:30;0.38
10.06.2022;06:45;0.39
10.06.2022;07:00;0.39
10.06.2022;07:15;0.39
10.06.2022;07:30;0.39
10.06.2022;07:45;0.39
10.06.2022;08:00;0.39
10.06.2022;08:15;0.39
10.06.2022;08:30;0.38
10.06.2022;08:45;0.38
10.06.2022;09:00;0.38
10.06.2022;09:15;0.38
10.06.2022;09:30;0.38
10.06.2022;09:45;0.38
10.06.2022;10:00;0.38
10.06.2022;10:15;0.38
10.06.2022;10:30;0.38
10.06.2022;10:45;0.38
10.06.2022;11:00;0.38
10.06.2022;11:15;0.38
10.06.2022;11:30;0.37
10.06.2022;11:45;0.37
10.06.2022;12:00;0.37
10.06.2022;12:15;0.37
10.06.2022;12:30;0.37
10.06.2022;12:45;0.37
10.06.2022;13:00;0.37
10.06.2022;13:15;0.37
10.06.2022;13:30;0.37
10.06.2022;13:45;0.37
10.06.2022;14:00;0.37
10.06.2022;14:15;0.37
10.06.2022;14:30;0.37
10.06.2022;14:45;0.37
10.06.2022;15:00;0.37
10.06.2022;15:15;0.37
10.06.2022;15:30;0.37
10.06.2022;15:45;0.36
10.06.2022;16:00;0.37
10.06.2022;16:15;0.36
10.06.2022;16:30;0.37
10.06.2022;16:45;0.36
10.06.2022;17:00;0.36
10.06.2022;17:15;0.36
10.06.2022;17:30;0.36
10.06.2022;17:45;0.37
10.06.2022;18:00;0.37
10.06.2022;18:15;0.37
10.06.2022;18:30;0.37
10.06.2022;18:45;0.37
10.06.2022;19:00;0.37
10.06.2022;19:15;0.37
10.06.2022;19:30;0.37
10.06.2022;19:45;0.37
10.06.2022;20:00;0.36
10.06.2022;20:15;0.37
10.06.2022;20:30;0.36
10.06.2022;20:45;0.36
10.06.2022;21:00;0.36
10.06.2022;21:15;0.36
10.06.2022;21:30;0.36
10.06.2022;21:45;0.36
10.06.2022;22:00;0.36
10.06.2022;22:15;0.36
10.06.2022;22:30;0.36
10.06.2022;22:45;0.36
10.06.2022;23:00;0.36
10.06.2022;23:15;0.36
10.06.2022;23:30;0.36
10.06.2022;23:45;0.36
11.06.2022;00:00;0.36
11.06.2022;00:15;0.36
11.06.2022;00:30;0.36
11.06.2022;00:45;0.36
11.06.2022;01:00;0.36
11.06.2022;01:15;0.36
11.06.2022;01:30;0.36
11.06.2022;01:45;0.36
11.06.2022;02:00;0.36
11.06.2022;02:15;0.36
11.06.2022;02:30;0.36
11.06.2022;02:45;0.36
11.06.2022;03:00;0.35
11.06.2022;03:15;0.35
11.06.2022;03:30;0.35
11.06.2022;03:45;0.35
11.06.2022;04:00;0.35
11.06.2022;04:15;0.35
11.06.2022;04:30;0.35
11.06.2022;04:45;0.35
11.06.2022;05:00;0.35
11.06.2022;05:15;0.35
11.06.2022;05:30;0.36
11.06.2022;05:45;0.36
11.06.2022;06:00;0.36
11.06.2022;06:15;0.36
11.06.2022;06:30;0.37
11.06.2022;06:45;0.37
11.06.2022;07:00;0.37
11.06.2022;07:15;0.37
11.06.2022;07:30;0.38
11.06.2022;07:45;0.38
11.06.2022;08:00;0.38
11.06.2022;08:15;0.38
11.06.2022;08:30;0.37
11.06.2022;08:45;0.37
11.06.2022;09:00;0.37
11.06.2022;09:15;0.37
11.06.2022;09:30;0.37
11.06.2022;09:45;0.37
11.06.2022;10:00;0.37
11.06.2022;10:15;0.37
11.06.2022;10:30;0.37
11.06.2022;10:45;0.37
11.06.2022;11:00;0.37
11.06.2022;11:15;0.37
11.06.2022;11:30;0.37
11.06.2022;11:45;0.37
11.06.2022;12:00;0.37
11.06.2022;12:15;0.36
11.06.2022;12:30;0.36
11.06.2022;12:45;0.36
11.06.2022;13:00;0.36
11.06.2022;13:15;0.36
11.06.2022;13:30;0.36
11.06.2022;13:45;0.36
11.06.2022;14:00;0.36
11.06.2022;14:15;0.36
11.06.2022;14:30;0.36
11.06.2022;14:45;0.36
11.06.2022;15:00;0.36
11.06.2022;15:15;0.36
11.06.2022;15:30;0.36
11.06.2022;15:45;0.36
11.06.2022;16:00;0.36
11.06.2022;16:15;0.36
11.06.2022;16:30;0.36
11.06.2022;16:45;0.36
11.06.2022;17:00;0.36
11.06.2022;17:15;0.36
11.06.2022;17:30;0.36
11.06.2022;17:45;0.36
11.06.2022;18:00;0.36
11.06.2022;18:15;0.36
11.06.2022;18:30;0.36
11.06.2022;18:45;0.36
11.06.2022;19:00;0.36
11.06.2022;19:15;0.36
11.06.2022;19:30;0.36
11.06.2022;19:45;0.36
11.06.2022;20:00;0.36
11.06.2022;20:15;0.36
11.06.2022;20:30;0.36
11.06.2022;20:45;0.36
11.06.2022;21:00;0.36
11.06.2022;21:15;0.36
11.06.2022;21:30;0.36
11.06.2022;21:45;0.36
11.06.2022;22:00;0.36
11.06.2022;22:15;0.36
11.06.2022;22:30;0.36
11.06.2022;22:45;0.36
11.06.2022;23:00;0.36
11.06.2022;23:15;0.36
11.06.2022;23:30;0.37
11.06.2022;23:45;0.37
12.06.2022;00:00;0.38
12.06.2022;00:15;0.39
12.06.2022;00:30;0.41
12.06.2022;00:45;0.42
12.06.2022;01:00;0.44
12.06.2022;01:15;0.45
12.06.2022;01:30;0.46
12.06.2022;01:45;0.48
12.06.2022;02:00;0.51
12.06.2022;02:15;0.51
12.06.2022;02:30;0.51
12.06.2022;02:45;0.51
12.06.2022;03:00;0.51
12.06.2022;03:15;0.52
12.06.2022;03:30;0.52
12.06.2022;03:45;0.52
12.06.2022;04:00;0.51
12.06.2022;04:15;0.51
12.06.2022;04:30;0.5
12.06.2022;04:45;0.5
12.06.2022;05:00;0.49
12.06.2022;05:15;0.48
12.06.2022;05:30;0.48
12.06.2022;05:45;0.49
12.06.2022;06:00;0.48
12.06.2022;06:15;0.47
12.06.2022;06:30;0.47
12.06.2022;06:45;0.47
12.06.2022;07:00;0.46
12.06.2022;07:15;0.46
12.06.2022;07:30;0.46
12.06.2022;07:45;0.46
12.06.2022;08:00;0.46
12.06.2022;08:15;0.46
12.06.2022;08:30;0.45
12.06.2022;08:45;0.46
12.06.2022;09:00;0.45
12.06.2022;09:15;0.45
12.06.2022;09:30;0.45
12.06.2022;09:45;0.45
12.06.2022;10:00;0.44
12.06.2022;10:15;0.44
12.06.2022;10:30;0.44
12.06.2022;10:45;0.44
12.06.2022;11:00;0.44
12.06.2022;11:15;0.44
12.06.2022;11:30;0.43
12.06.2022;11:45;0.43
12.06.2022;12:00;0.43
12.06.2022;12:15;0.43
12.06.2022;12:30;0.43
12.06.2022;12:45;0.43
12.06.2022;13:00;0.43
12.06.2022;13:15;0.43
12.06.2022;13:30;0.42
12.06.2022;13:45;0.42
12.06.2022;14:00;0.42
12.06.2022;14:15;0.42
12.06.2022;14:30;0.41
12.06.2022;14:45;0.42
12.06.2022;15:00;0.41
12.06.2022;15:15;0.41
12.06.2022;15:30;0.41
12.06.2022;15:45;0.41
12.06.2022;16:00;0.41
12.06.2022;16:15;0.41
12.06.2022;16:30;0.41
12.06.2022;16:45;0.41
12.06.2022;17:00;0.41
12.06.2022;17:15;0.42
12.06.2022;17:30;0.42
12.06.2022;17:45;0.41
12.06.2022;18:00;0.41
12.06.2022;18:15;0.42
12.06.2022;18:30;0.41
12.06.2022;18:45;0.41
12.06.2022;19:00;0.41
12.06.2022;19:15;0.41
12.06.2022;19:30;0.42
12.06.2022;19:45;0.41
12.06.2022;20:00;0.41
12.06.2022;20:15;0.41
12.06.2022;20:30;0.41
12.06.2022;20:45;0.41
12.06.2022;21:00;0.41
12.06.2022;21:15;0.41
12.06.2022;21:30;0.41
12.06.2022;21:45;0.41
12.06.2022;22:00;0.41
12.06.2022;22:15;0.4
12.06.2022;22:30;0.4
12.06.2022;22:45;0.4
12.06.2022;23:00;0.4
12.06.2022;23:15;0.4
12.06.2022;23:30;0.4
12.06.2022;23:45;0.4
13.06.2022;00:00;0.39
13.06.2022;00:15;0.39
13.06.2022;00:30;0.39
13.06.2022;00:45;0.39
13.06.2022;01:00;0.39
13.06.2022;01:15;0.39
13.06.2022;01:30;0.39
13.06.2022;01:45;0.38
13.06.2022;02:00;0.38
13.06.2022;02:15;0.38
13.06.2022;02:30;0.38
13.06.2022;02:45;0.38
13.06.2022;03:00;0.38
13.06.2022;03:15;0.38
13.06.2022;03:30;0.38
13.06.2022;03:45;0.38
13.06.2022;04:00;0.38
13.06.2022;04:15;0.38
13.06.2022;04:30;0.38
13.06.2022;04:45;0.37
13.06.2022;05:00;0.37
13.06.2022;05:15;0.37
13.06.2022;05:30;0.37
13.06.2022;05:45;0.37
13.06.2022;06:00;0.37
13.06.2022;06:15;0.37
13.06.2022;06:30;0.37
13.06.2022;06:45;0.37
13.06.2022;07:00;0.37
13.06.2022;07:15;0.37
13.06.2022;07:30;0.37
13.06.2022;07:45;0.37
13.06.2022;08:00;0.37
13.06.2022;08:15;0.36
13.06.2022;08:30;0.36
13.06.2022;08:45;0.36
13.06.2022;09:00;0.36
13.06.2022;09:15;0.36
13.06.2022;09:30;0.36
13.06.2022;09:45;0.36
13.06.2022;10:00;0.36
13.06.2022;10:15;0.36
13.06.2022;10:30;0.36
13.06.2022;10:45;0.36
13.06.2022;11:00;0.36
13.06.2022;11:15;0.36
13.06.2022;11:30;0.36
13.06.2022;11:45;0.36
13.06.2022;12:00;0.36
13.06.2022;12:15;0.36
13.06.2022;12:30;0.36
13.06.2022;12:45;0.36
13.06.2022;13:00;0.36
13.06.2022;13:15;0.35
13.06.2022;13:30;0.35
13.06.2022;13:45;0.36
13.06.2022;14:00;0.35
13.06.2022;14:15;0.35
13.06.2022;14:30;0.35
13.06.2022;14:45;0.35
13.06.2022;15:00;0.35
13.06.2022;15:15;0.35
13.06.2022;15:30;0.35
13.06.2022;15:45;0.35
13.06.2022;16:00;0.35
13.06.2022;16:15;0.35
13.06.2022;16:30;0.35
13.06.2022;16:45;0.35
13.06.2022;17:00;0.35
13.06.2022;17:15;0.35
13.06.2022;17:30;0.35
13.06.2022;17:45;0.35
13.06.2022;18:00;0.35
13.06.2022;18:15;0.35
13.06.2022;18:30;0.35
13.06.2022;18:45;0.35
13.06.2022;19:00;0.35
13.06.2022;19:15;0.35
13.06.2022;19:30;0.35
13.06.2022;19:45;0.35
13.06.2022;20:00;0.35
13.06.2022;20:15;0.35
13.06.2022;20:30;0.35
13.06.2022;20:45;0.35
13.06.2022;21:00;0.35
13.06.2022;21:15;0.35
13.06.2022;21:30;0.35
13.06.2022;21:45;0.35
13.06.2022;22:00;0.35
13.06.2022;22:15;0.35
13.06.2022;22:30;0.35
13.06.2022;22:45;0.35
13.06.2022;23:00;0.35
13.06.2022;23:15;0.35
13.06.2022;23:30;0.35
13.06.2022;23:45;0.35
14.06.2022;00:00;0.34
14.06.2022;00:15;0.34
14.06.2022;00:30;0.34
14.06.2022;00:45;0.34
14.06.2022;01:00;0.35
14.06.2022;01:15;0.37
14.06.2022;01:30;0.38
14.06.2022;01:45;0.36
14.06.2022;02:00;0.34
14.06.2022;02:15;0.34
14.06.2022;02:30;0.34
14.06.2022;02:45;0.34
14.06.2022;03:00;0.34
14.06.2022;03:15;0.34
14.06.2022;03:30;0.34
14.06.2022;03:45;0.34
14.06.2022;04:00;0.34
14.06.2022;04:15;0.34
14.06.2022;04:30;0.34
14.06.2022;04:45;0.34
14.06.2022;05:00;0.34
14.06.2022;05:15;0.34
14.06.2022;05:30;0.34
14.06.2022;05:45;0.34
14.06.2022;06:00;0.34
14.06.2022;06:15;0.34
14.06.2022;06:30;0.34
14.06.2022;06:45;0.34
14.06.2022;07:00;0.34
14.06.2022;07:15;0.34
14.06.2022;07:30;0.33
14.06.2022;07:45;0.33
14.06.2022;08:00;0.33
14.06.2022;08:15;0.33
14.06.2022;08:30;0.33
14.06.2022;08:45;0.33
14.06.2022;09:00;0.33
14.06.2022;09:15;0.33
14.06.2022;09:30;0.33
14.06.2022;09:45;0.33
14.06.2022;10:00;0.33
14.06.2022;10:15;0.33
14.06.2022;10:30;0.33
14.06.2022;10:45;0.33
14.06.2022;11:00;0.33
14.06.2022;11:15;0.33
14.06.2022;11:30;0.33
14.06.2022;11:45;0.33
14.06.2022;12:00;0.33
14.06.2022;12:15;0.33
14.06.2022;12:30;0.33
14.06.2022;12:45;0.33
14.06.2022;13:00;0.33
14.06.2022;13:15;0.33
14.06.2022;13:30;0.33
14.06.2022;13:45;0.33
14.06.2022;14:00;0.33
14.06.2022;14:15;0.33
14.06.2022;14:30;0.33
14.06.2022;14:45;0.33
14.06.2022;15:00;0.33
14.06.2022;15:15;0.33
14.06.2022;15:30;0.33
14.06.2022;15:45;0.33
14.06.2022;16:00;0.33
14.06.2022;16:15;0.33
14.06.2022;16:30;0.33
14.06.2022;16:45;0.33
14.06.2022;17:00;0.33
14.06.2022;17:15;0.33
14.06.2022;17:30;0.33
14.06.2022;17:45;0.33
14.06.2022;18:00;0.33
14.06.2022;18:15;0.32
14.06.2022;18:30;0.32
14.06.2022;18:45;0.32
14.06.2022;19:00;0.32
14.06.2022;19:15;0.32
14.06.2022;19:30;0.32
14.06.2022;19:45;0.32
14.06.2022;20:00;0.32
14.06.2022;20:15;0.32
14.06.2022;20:30;0.32
14.06.2022;20:45;0.32
14.06.2022;21:00;0.32
14.06.2022;21:15;0.32
14.06.2022;21:30;0.32
14.06.2022;21:45;0.32
14.06.2022;22:00;0.32
14.06.2022;22:15;0.32
14.06.2022;22:30;0.32
14.06.2022;22:45;0.32
14.06.2022;23:00;0.32
14.06.2022;23:15;0.32
14.06.2022;23:30;0.32
14.06.2022;23:45;0.32
15.06.2022;00:00;0.32
15.06.2022;00:15;0.32
15.06.2022;00:30;0.32
15.06.2022;00:45;0.32
15.06.2022;01:00;0.32
15.06.2022;01:15;0.32
15.06.2022;01:30;0.32
15.06.2022;01:45;0.35
15.06.2022;02:00;0.42
15.06.2022;02:15;0.45
15.06.2022;02:30;0.42
15.06.2022;02:45;0.36
15.06.2022;03:00;0.32
15.06.2022;03:15;0.32
15.06.2022;03:30;0.32
15.06.2022;03:45;0.32
15.06.2022;04:00;0.32
15.06.2022;04:15;0.32
15.06.2022;04:30;0.32
15.06.2022;04:45;0.32
15.06.2022;05:00;0.32
15.06.2022;05:15;0.32
15.06.2022;05:30;0.32
15.06.2022;05:45;0.32
15.06.2022;06:00;0.32
15.06.2022;06:15;0.32
15.06.2022;06:30;0.32
15.06.2022;06:45;0.32
15.06.2022;07:00;0.32
15.06.2022;07:15;0.32
15.06.2022;07:30;0.32
15.06.2022;07:45;0.32
15.06.2022;08:00;0.32
15.06.2022;08:15;0.32
15.06.2022;08:30;0.32
15.06.2022;08:45;0.32
15.06.2022;09:00;0.32
15.06.2022;09:15;0.32
15.06.2022;09:30;0.32
15.06.2022;09:45;0.32
15.06.2022;10:00;0.32
15.06.2022;10:15;0.32
15.06.2022;10:30;0.32
15.06.2022;10:45;0.32
15.06.2022;11:00;0.32
15.06.2022;11:15;0.32
15.06.2022;11:30;0.32
15.06.2022;11:45;0.32
15.06.2022;12:00;0.32
15.06.2022;12:15;0.32
15.06.2022;12:30;0.32
15.06.2022;12:45;0.32
15.06.2022;13:00;0.32
15.06.2022;13:15;0.32
15.06.2022;13:30;0.32
15.06.2022;13:45;0.32
15.06.2022;14:00;0.32
15.06.2022;14:15;0.32
15.06.2022;14:30;0.31
15.06.2022;14:45;0.31
15.06.2022;15:00;0.31
15.06.2022;15:15;0.31
15.06.2022;15:30;0.31
15.06.2022;15:45;0.31
15.06.2022;16:00;0.31
15.06.2022;16:15;0.31
15.06.2022;16:30;0.31
15.06.2022;16:45;0.31
15.06.2022;17:00;0.31
15.06.2022;17:15;0.31
15.06.2022;17:30;0.31
15.06.2022;17:45;0.31
15.06.2022;18:00;0.31
15.06.2022;18:15;0.31
15.06.2022;18:30;0.31
15.06.2022;18:45;0.31
15.06.2022;19:00;0.31
15.06.2022;19:15;0.31
15.06.2022;19:30;0.31
15.06.2022;19:45;0.31
15.06.2022;20:00;0.31
15.06.2022;20:15;0.31
15.06.2022;20:30;0.31
15.06.2022;20:45;0.31
15.06.2022;21:00;0.31
15.06.2022;21:15;0.31
15.06.2022;21:30;0.31
15.06.2022;21:45;0.31
15.06.2022;22:00;0.31
15.06.2022;22:15;0.31
15.06.2022;22:30;0.31
15.06.2022;22:45;0.31
15.06.2022;23:00;0.32
15.06.2022;23:15;0.32
15.06.2022;23:30;0.32
15.06.2022;23:45;0.32
16.06.2022;00:00;0.32
16.06.2022;00:15;0.32
16.06.2022;00:30;0.32
16.06.2022;00:45;0.32
16.06.2022;01:00;0.32
16.06.2022;01:15;0.32
16.06.2022;01:30;0.32
16.06.2022;01:45;0.32
16.06.2022;02:00;0.32
16.06.2022;02:15;0.32
16.06.2022;02:30;0.37
16.06.2022;02:45;0.45
16.06.2022;03:00;0.49
16.06.2022;03:15;0.49
16.06.2022;03:30;0.43
16.06.2022;03:45;0.34
16.06.2022;04:00;0.32
16.06.2022;04:15;0.32
16.06.2022;04:30;0.32
16.06.2022;04:45;0.32
16.06.2022;05:00;0.32
16.06.2022;05:15;0.32
16.06.2022;05:30;0.32
16.06.2022;05:45;0.31
16.06.2022;06:00;0.32
16.06.2022;06:15;0.31
16.06.2022;06:30;0.31
16.06.2022;06:45;0.32
16.06.2022;07:00;0.31
16.06.2022;07:15;0.31
16.06.2022;07:30;0.31
16.06.2022;07:45;0.31
16.06.2022;08:00;0.31
16.06.2022;08:15;0.31
16.06.2022;08:30;0.31
16.06.2022;08:45;0.31
16.06.2022;09:00;0.31
16.06.2022;09:15;0.31
16.06.2022;09:30;0.31
16.06.2022;09:45;0.31
16.06.2022;10:00;0.31
16.06.2022;10:15;0.31
16.06.2022;10:30;0.31
16.06.2022;10:45;0.31
16.06.2022;11:00;0.31
16.06.2022;11:15;0.31
16.06.2022;11:30;0.31
16.06.2022;11:45;0.31
16.06.2022;12:00;0.31
16.06.2022;12:15;0.31
16.06.2022;12:30;0.31
16.06.2022;12:45;0.31
16.06.2022;13:00;0.31
16.06.2022;13:15;0.31
16.06.2022;13:30;0.31
16.06.2022;13:45;0.31
16.06.2022;14:00;0.31
16.06.2022;14:15;0.31
16.06.2022;14:30;0.31
16.06.2022;14:45;0.31
16.06.2022;15:00;0.31
16.06.2022;15:15;0.31
16.06.2022;15:30;0.31
16.06.2022;15:45;0.31
16.06.2022;16:00;0.31
16.06.2022;16:15;0.31
16.06.2022;16:30;0.31
16.06.2022;16:45;0.31
16.06.2022;17:00;0.31
16.06.2022;17:15;0.31
16.06.2022;17:30;0.31
16.06.2022;17:45;0.31
16.06.2022;18:00;0.31
16.06.2022;18:15;0.31
16.06.2022;18:30;0.31
16.06.2022;18:45;0.31
16.06.2022;19:00;0.31
16.06.2022;19:15;0.31
16.06.2022;19:30;0.31
16.06.2022;19:45;0.31
16.06.2022;20:00;0.31
16.06.2022;20:15;0.31
16.06.2022;20:30;0.31
16.06.2022;20:45;0.31
16.06.2022;21:00;0.31
16.06.2022;21:15;0.31
16.06.2022;21:30;0.31
16.06.2022;21:45;0.31
16.06.2022;22:00;0.31
16.06.2022;22:15;0.31
16.06.2022;22:30;0.31
16.06.2022;22:45;0.31
16.06.2022;23:00;0.31
16.06.2022;23:15;0.31
16.06.2022;23:30;0.31
16.06.2022;23:45;0.31
17.06.2022;00:00;0.31
17.06.2022;00:15;0.31
17.06.2022;00:30;0.31
17.06.2022;00:45;0.31
17.06.2022;01:00;0.31
17.06.2022;01:15;0.31
17.06.2022;01:30;0.31
17.06.2022;01:45;0.31
17.06.2022;02:00;0.31
17.06.2022;02:15;0.31
17.06.2022;02:30;0.31
17.06.2022;02:45;0.31
17.06.2022;03:00;0.31
17.06.2022;03:15;0.31
17.06.2022;03:30;0.31
17.06.2022;03:45;0.31
17.06.2022;04:00;0.31
17.06.2022;04:15;0.31
17.06.2022;04:30;0.31
17.06.2022;04:45;0.31
17.06.2022;05:00;0.31
17.06.2022;05:15;0.31
17.06.2022;05:30;0.31
17.06.2022;05:45;0.31
17.06.2022;06:00;0.31
17.06.2022;06:15;0.31
17.06.2022;06:30;0.31
17.06.2022;06:45;0.31
17.06.2022;07:00;0.31
17.06.2022;07:15;0.31
17.06.2022;07:30;0.31
17.06.2022;07:45;0.31
17.06.2022;08:00;0.31
17.06.2022;08:15;0.31
17.06.2022;08:30;0.31
17.06.2022;08:45;0.31
17.06.2022;09:00;0.31
17.06.2022;09:15;0.31
17.06.2022;09:30;0.31
17.06.2022;09:45;0.31
17.06.2022;10:00;0.31
17.06.2022;10:15;0.31
17.06.2022;10:30;0.31
17.06.2022;10:45;0.31
17.06.2022;11:00;0.31
17.06.2022;11:15;0.31
17.06.2022;11:30;0.31
17.06.2022;11:45;0.31
17.06.2022;12:00;0.31
17.06.2022;12:15;0.31
17.06.2022;12:30;0.31
17.06.2022;12:45;0.31
17.06.2022;13:00;0.31
17.06.2022;13:15;0.31
17.06.2022;13:30;0.31
17.06.2022;13:45;0.31
17.06.2022;14:00;0.31
17.06.2022;14:15;0.31
17.06.2022;14:30;0.31
17.06.2022;14:45;0.31
17.06.2022;15:00;0.31
17.06.2022;15:15;0.31
17.06.2022;15:30;0.31
17.06.2022;15:45;0.31
17.06.2022;16:00;0.3
17.06.2022;16:15;0.31
17.06.2022;16:30;0.31
17.06.2022;16:45;0.3
17.06.2022;17:00;0.31
17.06.2022;17:15;0.31
17.06.2022;17:30;0.3
17.06.2022;17:45;0.3
17.06.2022;18:00;0.3
17.06.2022;18:15;0.3
17.06.2022;18:30;0.3
17.06.2022;18:45;0.3
17.06.2022;19:00;0.3
17.06.2022;19:15;0.3
17.06.2022;19:30;0.3
17.06.2022;19:45;0.3
17.06.2022;20:00;0.3
17.06.2022;20:15;0.3
17.06.2022;20:30;0.3
17.06.2022;20:45;0.3
17.06.2022;21:00;0.3
17.06.2022;21:15;0.3
17.06.2022;21:30;0.3
17.06.2022;21:45;0.3
17.06.2022;22:00;0.3
17.06.2022;22:15;0.3
17.06.2022;22:30;0.3
17.06.2022;22:45;0.3
17.06.2022;23:00;0.3
17.06.2022;23:15;0.3
17.06.2022;23:30;0.3
17.06.2022;23:45;0.3
18.06.2022;00:00;0.3
18.06.2022;00:15;0.3
18.06.2022;00:30;0.3
18.06.2022;00:45;0.3
18.06.2022;01:00;0.3
18.06.2022;01:15;0.3
18.06.2022;01:30;0.3
18.06.2022;01:45;0.3
18.06.2022;02:00;0.3
18.06.2022;02:15;0.3
18.06.2022;02:30;0.3
18.06.2022;02:45;0.3
18.06.2022;03:00;0.3
18.06.2022;03:15;0.3
18.06.2022;03:30;0.3
18.06.2022;03:45;0.3
18.06.2022;04:00;0.3
18.06.2022;04:15;0.3
18.06.2022;04:30;0.3
18.06.2022;04:45;0.3
18.06.2022;05:00;0.3
18.06.2022;05:15;0.3
18.06.2022;05:30;0.3
18.06.2022;05:45;0.3
18.06.2022;06:00;0.3
18.06.2022;06:15;0.3
18.06.2022;06:30;0.3
18.06.2022;06:45;0.3
18.06.2022;07:00;0.3
18.06.2022;07:15;0.3
18.06.2022;07:30;0.3
18.06.2022;07:45;0.3
18.06.2022;08:00;0.3
18.06.2022;08:15;0.3
18.06.2022;08:30;0.3
18.06.2022;08:45;0.3
18.06.2022;09:00;0.3
18.06.2022;09:15;0.3
18.06.2022;09:30;0.3
18.06.2022;09:45;0.3
18.06.2022;10:00;0.3
18.06.2022;10:15;0.3
18.06.2022;10:30;0.3
18.06.2022;10:45;0.3
18.06.2022;11:00;0.3
18.06.2022;11:15;0.3
18.06.2022;11:30;0.3
18.06.2022;11:45;0.3
18.06.2022;12:00;0.3
18.06.2022;12:15;0.3
18.06.2022;12:30;0.3
18.06.2022;12:45;0.3
18.06.2022;13:00;0.3
18.06.2022;13:15;0.3
18.06.2022;13:30;0.3
18.06.2022;13:45;0.3
18.06.2022;14:00;0.3
18.06.2022;14:15;0.3
18.06.2022;14:30;0.3
18.06.2022;14:45;0.3
18.06.2022;15:00;0.3
18.06.2022;15:15;0.3
18.06.2022;15:30;0.3
18.06.2022;15:45;0.3
18.06.2022;16:00;0.3
18.06.2022;16:15;0.3
18.06.2022;16:30;0.3
18.06.2022;16:45;0.3
18.06.2022;17:00;0.3
18.06.2022;17:15;0.3
18.06.2022;17:30;0.3
18.06.2022;17:45;0.3
18.06.2022;18:00;0.3
18.06.2022;18:15;0.3
18.06.2022;18:30;0.3
18.06.2022;18:45;0.3
18.06.2022;19:00;0.3
18.06.2022;19:15;0.3
18.06.2022;19:30;0.3
18.06.2022;19:45;0.3
18.06.2022;20:00;0.3
18.06.2022;20:15;0.3
18.06.2022;20:30;0.3
18.06.2022;20:45;0.3
18.06.2022;21:00;0.3
18.06.2022;21:15;0.3
18.06.2022;21:30;0.3
18.06.2022;21:45;0.3
18.06.2022;22:00;0.3
18.06.2022;22:15;0.3
18.06.2022;22:30;0.3
18.06.2022;22:45;0.3
18.06.2022;23:00;0.3
18.06.2022;23:15;0.3
18.06.2022;23:30;0.3
18.06.2022;23:45;0.3
19.06.2022;00:00;0.3
19.06.2022;00:15;0.3
19.06.2022;00:30;0.3
19.06.2022;00:45;0.3
19.06.2022;01:00;0.3
19.06.2022;01:15;0.3
19.06.2022;01:30;0.3
19.06.2022;01:45;0.3
19.06.2022;02:00;0.3
19.06.2022;02:15;0.3
19.06.2022;02:30;0.3
19.06.2022;02:45;0.3
19.06.2022;03:00;0.3
19.06.2022;03:15;0.3
19.06.2022;03:30;0.3
19.06.2022;03:45;0.3
19.06.2022;04:00;0.3
19.06.2022;04:15;0.3
19.06.2022;04:30;0.3
19.06.2022;04:45;0.3
19.06.2022;05:00;0.3
19.06.2022;05:15;0.3
19.06.2022;05:30;0.3
19.06.2022;05:45;0.3
19.06.2022;06:00;0.3
19.06.2022;06:15;0.3
19.06.2022;06:30;0.3
19.06.2022;06:45;0.3
19.06.2022;07:00;0.3
19.06.2022;07:15;0.3
19.06.2022;07:30;0.3
19.06.2022;07:45;0.3
19.06.2022;08:00;0.3
19.06.2022;08:15;0.3
19.06.2022;08:30;0.3
19.06.2022;08:45;0.3
19.06.2022;09:00;0.3
19.06.2022;09:15;0.3
19.06.2022;09:30;0.3
19.06.2022;09:45;0.3
19.06.2022;10:00;0.3
19.06.2022;10:15;0.3
19.06.2022;10:30;0.3
19.06.2022;10:45;0.3
19.06.2022;11:00;0.3
19.06.2022;11:15;0.3
19.06.2022;11:30;0.3
19.06.2022;11:45;0.3
19.06.2022;12:00;0.3
19.06.2022;12:15;0.3
19.06.2022;12:30;0.3
19.06.2022;12:45;0.3
19.06.2022;13:00;0.3
19.06.2022;13:15;0.3
19.06.2022;13:30;0.3
19.06.2022;13:45;0.3
19.06.2022;14:00;0.3
19.06.2022;14:15;0.3
19.06.2022;14:30;0.3
19.06.2022;14:45;0.3
19.06.2022;15:00;0.3
19.06.2022;15:15;0.3
19.06.2022;15:30;0.3
19.06.2022;15:45;0.3
19.06.2022;16:00;0.3
19.06.2022;16:15;0.3
19.06.2022;16:30;0.3
19.06.2022;16:45;0.3
19.06.2022;17:00;0.3
19.06.2022;17:15;0.29
19.06.2022;17:30;0.3
19.06.2022;17:45;0.29
19.06.2022;18:00;0.29
19.06.2022;18:15;0.29
19.06.2022;18:30;0.3
19.06.2022;18:45;0.29
19.06.2022;19:00;0.29
19.06.2022;19:15;0.29
19.06.2022;19:30;0.29
19.06.2022;19:45;0.29
19.06.2022;20:00;0.29
19.06.2022;20:15;0.29
19.06.2022;20:30;0.29
19.06.2022;20:45;0.29
19.06.2022;21:00;0.29
19.06.2022;21:15;0.29
19.06.2022;21:30;0.29
19.06.2022;21:45;0.29
19.06.2022;22:00;0.29
19.06.2022;22:15;0.29
19.06.2022;22:30;0.29
19.06.2022;22:45;0.29
19.06.2022;23:00;0.29
19.06.2022;23:15;0.29
19.06.2022;23:30;0.29
19.06.2022;23:45;0.29
20.06.2022;00:00;0.29
20.06.2022;00:15;0.29
20.06.2022;00:30;0.29
20.06.2022;00:45;0.29
20.06.2022;01:00;0.29
20.06.2022;01:15;0.29
20.06.2022;01:30;0.29
20.06.2022;01:45;0.29
20.06.2022;02:00;0.29
20.06.2022;02:15;0.29
20.06.2022;02:30;0.29
20.06.2022;02:45;0.29
20.06.2022;03:00;0.29
20.06.2022;03:15;0.29
20.06.2022;03:30;0.29
20.06.2022;03:45;0.29
20.06.2022;04:00;0.29
20.06.2022;04:15;0.29
20.06.2022;04:30;0.29
20.06.2022;04:45;0.29
20.06.2022;05:00;0.29
20.06.2022;05:15;0.29
20.06.2022;05:30;0.29
20.06.2022;05:45;0.29
20.06.2022;06:00;0.29
20.06.2022;06:15;0.29
20.06.2022;06:30;0.29
20.06.2022;06:45;0.29
20.06.2022;07:00;0.29
20.06.2022;07:15;0.29
20.06.2022;07:30;0.3
20.06.2022;07:45;0.3
20.06.2022;08:00;0.3
20.06.2022;08:15;0.29
20.06.2022;08:30;0.3
20.06.2022;08:45;0.29
20.06.2022;09:00;0.3
20.06.2022;09:15;0.29
20.06.2022;09:30;0.3
20.06.2022;09:45;0.3
20.06.2022;10:00;0.3
20.06.2022;10:15;0.3
20.06.2022;10:30;0.3
20.06.2022;10:45;0.3
20.06.2022;11:00;0.3
20.06.2022;11:15;0.3
20.06.2022;11:30;0.3
20.06.2022;11:45;0.3
20.06.2022;12:00;0.3
20.06.2022;12:15;0.3
20.06.2022;12:30;0.3
20.06.2022;12:45;---
20.06.2022;13:00;---
20.06.2022;13:15;---
20.06.2022;13:30;---
20.06.2022;13:45;---
20.06.2022;14:00;---
20.06.2022;14:15;---
20.06.2022;14:30;---
20.06.2022;14:45;---
20.06.2022;15:00;---
20.06.2022;15:15;---
20.06.2022;15:30;---
20.06.2022;15:45;---
20.06.2022;16:00;---
20.06.2022;16:15;---
20.06.2022;16:30;---
20.06.2022;16:45;---
20.06.2022;17:00;---
20.06.2022;17:15;---
20.06.2022;17:30;---
20.06.2022;17:45;---
20.06.2022;18:00;---
20.06.2022;18:15;---
20.06.2022;18:30;---
20.06.2022;18:45;---
20.06.2022;19:00;---
20.06.2022;19:15;---
20.06.2022;19:30;---
20.06.2022;19:45;---
20.06.2022;20:00;---
20.06.2022;20:15;---
20.06.2022;20:30;---
20.06.2022;20:45;---
20.06.2022;21:00;---
20.06.2022;21:15;---
20.06.2022;21:30;---
20.06.2022;21:45;---
20.06.2022;22:00;---
20.06.2022;22:15;---
20.06.2022;22:30;---
20.06.2022;22:45;---
20.06.2022;23:00;---
20.06.2022;23:15;---
20.06.2022;23:30;---
20.06.2022;23:45;---
21.06.2022;00:00;---
