datetime,general,data
2022-06-02 01:00:00,44714.0416666667,5.1
2022-06-02 02:00:00,44714.0833333333,5.1
2022-06-02 03:00:00,44714.125,5.1
2022-06-02 04:00:00,44714.1666666667,5.1
2022-06-02 05:00:00,44714.2083333333,5.1
2022-06-02 06:00:00,44714.25,5.1
2022-06-02 07:00:00,44714.2916666667,5.1
2022-06-02 08:00:00,44714.3333333333,5.1
2022-06-02 09:00:00,44714.375,5.1
2022-06-02 10:00:00,44714.4166666667,5.1
2022-06-02 11:00:00,44714.4583333333,5.1
2022-06-02 12:00:00,44714.5,5.1
2022-06-02 13:00:00,44714.5416666667,5.1
2022-06-02 14:00:00,44714.5833333333,5.1
2022-06-02 15:00:00,44714.625,5.1
2022-06-02 16:00:00,44714.6666666667,5.1
2022-06-02 17:00:00,44714.7083333333,5.1
2022-06-02 18:00:00,44714.75,5.1
2022-06-02 19:00:00,44714.7916666667,5.1
2022-06-02 20:00:00,44714.8333333333,5.1
2022-06-02 21:00:00,44714.875,5.1
2022-06-02 22:00:00,44714.9166666667,5.1
2022-06-02 23:00:00,44714.9583333333,5.1
2022-06-03 00:00:00,44715,5.2
2022-06-03 01:00:00,44715.0416666667,5.1
2022-06-03 02:00:00,44715.0833333333,5.1
2022-06-03 03:00:00,44715.125,5.1
2022-06-03 04:00:00,44715.1666666667,5.1
2022-06-03 05:00:00,44715.2083333333,5.1
2022-06-03 06:00:00,44715.25,5.1
2022-06-03 07:00:00,44715.2916666667,5.1
2022-06-03 08:00:00,44715.3333333333,5.1
2022-06-03 09:00:00,44715.375,5.1
2022-06-03 10:00:00,44715.4166666667,5.1
2022-06-03 11:00:00,44715.4583333333,5.1
2022-06-03 12:00:00,44715.5,5.1
2022-06-03 13:00:00,44715.5416666667,5.2
2022-06-03 14:00:00,44715.5833333333,5.2
2022-06-03 15:00:00,44715.625,5.2
2022-06-03 16:00:00,44715.6666666667,5.2
2022-06-03 17:00:00,44715.7083333333,5.2
2022-06-03 18:00:00,44715.75,5.2
2022-06-03 19:00:00,44715.7916666667,5.2
2022-06-03 20:00:00,44715.8333333333,5.2
2022-06-03 21:00:00,44715.875,5.2
2022-06-03 22:00:00,44715.9166666667,5.2
2022-06-03 23:00:00,44715.9583333333,5.2
2022-06-04 00:00:00,44716,5.2
2022-06-04 01:00:00,44716.0416666667,5.1
2022-06-04 02:00:00,44716.0833333333,5.1
2022-06-04 03:00:00,44716.125,5.1
2022-06-04 04:00:00,44716.1666666667,5.1
2022-06-04 05:00:00,44716.2083333333,5.1
2022-06-04 06:00:00,44716.25,5.1
2022-06-04 07:00:00,44716.2916666667,5.1
2022-06-04 08:00:00,44716.3333333333,5.1
2022-06-04 09:00:00,44716.375,5.1
2022-06-04 10:00:00,44716.4166666667,5.1
2022-06-04 11:00:00,44716.4583333333,5.1
2022-06-04 12:00:00,44716.5,5.1
2022-06-04 13:00:00,44716.5416666667,5.1
2022-06-04 14:00:00,44716.5833333333,5.1
2022-06-04 15:00:00,44716.625,5.2
2022-06-04 16:00:00,44716.6666666667,5.2
2022-06-04 17:00:00,44716.7083333333,5.2
2022-06-04 18:00:00,44716.75,5.2
2022-06-04 19:00:00,44716.7916666667,5.2
2022-06-04 20:00:00,44716.8333333333,5.1
2022-06-04 21:00:00,44716.875,5.2
2022-06-04 22:00:00,44716.9166666667,5.2
2022-06-04 23:00:00,44716.9583333333,5.1
2022-06-05 00:00:00,44717,5.2
2022-06-05 01:00:00,44717.0416666667,5.1
2022-06-05 02:00:00,44717.0833333333,5.1
2022-06-05 03:00:00,44717.125,5.1
2022-06-05 04:00:00,44717.1666666667,5.1
2022-06-05 05:00:00,44717.2083333333,5.1
2022-06-05 06:00:00,44717.25,5.1
2022-06-05 07:00:00,44717.2916666667,5.1
2022-06-05 08:00:00,44717.3333333333,5.1
2022-06-05 09:00:00,44717.375,5.1
2022-06-05 10:00:00,44717.4166666667,5.1
2022-06-05 11:00:00,44717.4583333333,5.2
2022-06-05 12:00:00,44717.5,5.2
2022-06-05 13:00:00,44717.5416666667,5.2
2022-06-05 14:00:00,44717.5833333333,5.2
2022-06-05 15:00:00,44717.625,5.2
2022-06-05 16:00:00,44717.6666666667,5.2
2022-06-05 17:00:00,44717.7083333333,5.2
2022-06-05 18:00:00,44717.75,5.2
2022-06-05 19:00:00,44717.7916666667,5.2
2022-06-05 20:00:00,44717.8333333333,5.2
2022-06-05 21:00:00,44717.875,5.2
2022-06-05 22:00:00,44717.9166666667,5.2
2022-06-05 23:00:00,44717.9583333333,5.2
2022-06-06 00:00:00,44718,5.2
2022-06-06 01:00:00,44718.0416666667,5.2
2022-06-06 02:00:00,44718.0833333333,5.1
2022-06-06 03:00:00,44718.125,5.1
2022-06-06 04:00:00,44718.1666666667,5.1
2022-06-06 05:00:00,44718.2083333333,5.1
2022-06-06 06:00:00,44718.25,5.1
2022-06-06 07:00:00,44718.2916666667,5.1
2022-06-06 08:00:00,44718.3333333333,5.1
2022-06-06 09:00:00,44718.375,5.1
2022-06-06 10:00:00,44718.4166666667,5.1
2022-06-06 11:00:00,44718.4583333333,5.2
2022-06-06 12:00:00,44718.5,5.2
2022-06-06 13:00:00,44718.5416666667,5.2
2022-06-06 14:00:00,44718.5833333333,5.2
2022-06-06 15:00:00,44718.625,5.2
2022-06-06 16:00:00,44718.6666666667,5.2
2022-06-06 17:00:00,44718.7083333333,5.1
2022-06-06 18:00:00,44718.75,5.1
2022-06-06 19:00:00,44718.7916666667,5.1
2022-06-06 20:00:00,44718.8333333333,5.1
2022-06-06 21:00:00,44718.875,5.1
2022-06-06 22:00:00,44718.9166666667,5.1
2022-06-06 23:00:00,44718.9583333333,5.1
2022-06-07 00:00:00,44719,5.1
2022-06-07 01:00:00,44719.0416666667,5.1
2022-06-07 02:00:00,44719.0833333333,5.1
2022-06-07 03:00:00,44719.125,5.1
2022-06-07 04:00:00,44719.1666666667,5.1
2022-06-07 05:00:00,44719.2083333333,5.1
2022-06-07 06:00:00,44719.25,5.1
2022-06-07 07:00:00,44719.2916666667,5.1
2022-06-07 08:00:00,44719.3333333333,5.1
2022-06-07 09:00:00,44719.375,5.1
2022-06-07 10:00:00,44719.4166666667,5.1
2022-06-07 11:00:00,44719.4583333333,5.2
2022-06-07 12:00:00,44719.5,5.2
2022-06-07 13:00:00,44719.5416666667,5.2
2022-06-07 14:00:00,44719.5833333333,5.2
2022-06-07 15:00:00,44719.625,5.2
2022-06-07 16:00:00,44719.6666666667,5.2
2022-06-07 17:00:00,44719.7083333333,5.2
2022-06-07 18:00:00,44719.75,5.2
2022-06-07 19:00:00,44719.7916666667,5.2
2022-06-07 20:00:00,44719.8333333333,5.2
2022-06-07 21:00:00,44719.875,5.2
2022-06-07 22:00:00,44719.9166666667,5.2
2022-06-07 23:00:00,44719.9583333333,5.2
2022-06-08 00:00:00,44720,5.2
2022-06-08 01:00:00,44720.0416666667,5.2
2022-06-08 02:00:00,44720.0833333333,5.2
2022-06-08 03:00:00,44720.125,5.2
2022-06-08 04:00:00,44720.1666666667,5.1
2022-06-08 05:00:00,44720.2083333333,5.1
2022-06-08 06:00:00,44720.25,5.1
2022-06-08 07:00:00,44720.2916666667,5.1
2022-06-08 08:00:00,44720.3333333333,5.1
2022-06-08 09:00:00,44720.375,5.1
2022-06-08 10:00:00,44720.4166666667,5.1
2022-06-08 11:00:00,44720.4583333333,5.1
2022-06-08 12:00:00,44720.5,5.1
2022-06-08 13:00:00,44720.5416666667,5.1
2022-06-08 14:00:00,44720.5833333333,5.2
2022-06-08 15:00:00,44720.625,5.2
2022-06-08 16:00:00,44720.6666666667,5.2
2022-06-08 17:00:00,44720.7083333333,5.2
2022-06-08 18:00:00,44720.75,5.2
2022-06-08 19:00:00,44720.7916666667,5.2
2022-06-08 20:00:00,44720.8333333333,5.2
2022-06-08 21:00:00,44720.875,5.2
2022-06-08 22:00:00,44720.9166666667,5.2
2022-06-08 23:00:00,44720.9583333333,5.2
2022-06-09 00:00:00,44721,5.2
2022-06-09 01:00:00,44721.0416666667,5.1
2022-06-09 02:00:00,44721.0833333333,5.1
2022-06-09 03:00:00,44721.125,5.1
2022-06-09 04:00:00,44721.1666666667,5.1
2022-06-09 05:00:00,44721.2083333333,5.1
2022-06-09 06:00:00,44721.25,5.1
2022-06-09 07:00:00,44721.2916666667,5.1
2022-06-09 08:00:00,44721.3333333333,5.1
2022-06-09 09:00:00,44721.375,5.1
2022-06-09 10:00:00,44721.4166666667,5.1
2022-06-09 11:00:00,44721.4583333333,5.1
2022-06-09 12:00:00,44721.5,5.1
2022-06-09 13:00:00,44721.5416666667,5.1
2022-06-09 14:00:00,44721.5833333333,5.1
2022-06-09 15:00:00,44721.625,5.2
2022-06-09 16:00:00,44721.6666666667,5.2
2022-06-09 17:00:00,44721.7083333333,5.2
2022-06-09 18:00:00,44721.75,5.2
2022-06-09 19:00:00,44721.7916666667,5.1
2022-06-09 20:00:00,44721.8333333333,5.1
2022-06-09 21:00:00,44721.875,5.1
2022-06-09 22:00:00,44721.9166666667,5.1
2022-06-09 23:00:00,44721.9583333333,5.1
2022-06-10 00:00:00,44722,5.1
2022-06-10 01:00:00,44722.0416666667,5.1
2022-06-10 02:00:00,44722.0833333333,5.1
2022-06-10 03:00:00,44722.125,5.1
2022-06-10 04:00:00,44722.1666666667,5.1
2022-06-10 05:00:00,44722.2083333333,5.1
2022-06-10 06:00:00,44722.25,5.1
2022-06-10 07:00:00,44722.2916666667,5.1
2022-06-10 08:00:00,44722.3333333333,5.1
2022-06-10 09:00:00,44722.375,5.1
2022-06-10 10:00:00,44722.4166666667,5.1
2022-06-10 11:00:00,44722.4583333333,5.1
2022-06-10 12:00:00,44722.5,5.1
2022-06-10 13:00:00,44722.5416666667,5.1
2022-06-10 14:00:00,44722.5833333333,5.1
2022-06-10 15:00:00,44722.625,5.1
2022-06-10 16:00:00,44722.6666666667,5.1
2022-06-10 17:00:00,44722.7083333333,5.1
2022-06-10 18:00:00,44722.75,5.1
2022-06-10 19:00:00,44722.7916666667,5.1
2022-06-10 20:00:00,44722.8333333333,5.1
2022-06-10 21:00:00,44722.875,5.1
2022-06-10 22:00:00,44722.9166666667,5.1
2022-06-10 23:00:00,44722.9583333333,5.1
2022-06-11 00:00:00,44723,5.1
2022-06-11 01:00:00,44723.0416666667,5.1
2022-06-11 02:00:00,44723.0833333333,5.1
2022-06-11 03:00:00,44723.125,5.1
2022-06-11 04:00:00,44723.1666666667,5.1
2022-06-11 05:00:00,44723.2083333333,5.1
2022-06-11 06:00:00,44723.25,5.1
2022-06-11 07:00:00,44723.2916666667,5.1
2022-06-11 08:00:00,44723.3333333333,5.1
2022-06-11 09:00:00,44723.375,5.1
2022-06-11 10:00:00,44723.4166666667,5.1
2022-06-11 11:00:00,44723.4583333333,5.1
2022-06-11 12:00:00,44723.5,5.1
2022-06-11 13:00:00,44723.5416666667,5.1
2022-06-11 14:00:00,44723.5833333333,5.1
2022-06-11 15:00:00,44723.625,5.1
2022-06-11 16:00:00,44723.6666666667,5.1
2022-06-11 17:00:00,44723.7083333333,5.1
2022-06-11 18:00:00,44723.75,5.1
2022-06-11 19:00:00,44723.7916666667,5.1
2022-06-11 20:00:00,44723.8333333333,5.1
2022-06-11 21:00:00,44723.875,5.1
2022-06-11 22:00:00,44723.9166666667,5.1
2022-06-11 23:00:00,44723.9583333333,5.1
2022-06-12 00:00:00,44724,5.1
2022-06-12 01:00:00,44724.0416666667,5.1
2022-06-12 02:00:00,44724.0833333333,5.1
2022-06-12 03:00:00,44724.125,5.1
2022-06-12 04:00:00,44724.1666666667,5.1
2022-06-12 05:00:00,44724.2083333333,5.1
2022-06-12 06:00:00,44724.25,5.1
2022-06-12 07:00:00,44724.2916666667,5.1
2022-06-12 08:00:00,44724.3333333333,5.1
2022-06-12 09:00:00,44724.375,5.1
2022-06-12 10:00:00,44724.4166666667,5.1
2022-06-12 11:00:00,44724.4583333333,5.1
2022-06-12 12:00:00,44724.5,5.1
2022-06-12 13:00:00,44724.5416666667,5.1
2022-06-12 14:00:00,44724.5833333333,5.1
2022-06-12 15:00:00,44724.625,5.1
2022-06-12 16:00:00,44724.6666666667,5.1
2022-06-12 17:00:00,44724.7083333333,5.1
2022-06-12 18:00:00,44724.75,5.1
2022-06-12 19:00:00,44724.7916666667,5.1
2022-06-12 20:00:00,44724.8333333333,5.1
2022-06-12 21:00:00,44724.875,5.1
2022-06-12 22:00:00,44724.9166666667,5.1
2022-06-12 23:00:00,44724.9583333333,5.1
2022-06-13 00:00:00,44725,5.1
2022-06-13 01:00:00,44725.0416666667,5.1
2022-06-13 02:00:00,44725.0833333333,5.1
2022-06-13 03:00:00,44725.125,5.1
2022-06-13 04:00:00,44725.1666666667,5.1
2022-06-13 05:00:00,44725.2083333333,5.1
2022-06-13 06:00:00,44725.25,5.1
2022-06-13 07:00:00,44725.2916666667,5.1
2022-06-13 08:00:00,44725.3333333333,5.1
2022-06-13 09:00:00,44725.375,5.1
2022-06-13 10:00:00,44725.4166666667,5.1
2022-06-13 11:00:00,44725.4583333333,5.1
2022-06-13 12:00:00,44725.5,5.1
2022-06-13 13:00:00,44725.5416666667,5.1
2022-06-13 14:00:00,44725.5833333333,5.1
2022-06-13 15:00:00,44725.625,5.1
2022-06-13 16:00:00,44725.6666666667,5.1
2022-06-13 17:00:00,44725.7083333333,5.1
2022-06-13 18:00:00,44725.75,5.1
2022-06-13 19:00:00,44725.7916666667,5.1
2022-06-13 20:00:00,44725.8333333333,5.1
2022-06-13 21:00:00,44725.875,5.1
2022-06-13 22:00:00,44725.9166666667,5.1
2022-06-13 23:00:00,44725.9583333333,5.1
2022-06-14 00:00:00,44726,5.1
2022-06-14 01:00:00,44726.0416666667,5.1
2022-06-14 02:00:00,44726.0833333333,5.1
2022-06-14 03:00:00,44726.125,5.1
2022-06-14 04:00:00,44726.1666666667,5.1
2022-06-14 05:00:00,44726.2083333333,5.1
2022-06-14 06:00:00,44726.25,5.1
2022-06-14 07:00:00,44726.2916666667,5.1
2022-06-14 08:00:00,44726.3333333333,5.1
2022-06-14 09:00:00,44726.375,5.1
2022-06-14 10:00:00,44726.4166666667,5.1
2022-06-14 11:00:00,44726.4583333333,5.1
2022-06-14 12:00:00,44726.5,5.1
2022-06-14 13:00:00,44726.5416666667,5.1
2022-06-14 14:00:00,44726.5833333333,5.1
2022-06-14 15:00:00,44726.625,5.1
2022-06-14 16:00:00,44726.6666666667,5.1
2022-06-14 17:00:00,44726.7083333333,5.1
2022-06-14 18:00:00,44726.75,5.1
2022-06-14 19:00:00,44726.7916666667,5.1
2022-06-14 20:00:00,44726.8333333333,5.1
2022-06-14 21:00:00,44726.875,5.1
2022-06-14 22:00:00,44726.9166666667,5.1
2022-06-14 23:00:00,44726.9583333333,5.1
2022-06-15 00:00:00,44727,5.1
2022-06-15 01:00:00,44727.0416666667,5.1
2022-06-15 02:00:00,44727.0833333333,5.1
2022-06-15 03:00:00,44727.125,5.1
2022-06-15 04:00:00,44727.1666666667,5.1
2022-06-15 05:00:00,44727.2083333333,5.1
2022-06-15 06:00:00,44727.25,5.1
2022-06-15 07:00:00,44727.2916666667,5.1
2022-06-15 08:00:00,44727.3333333333,5.1
2022-06-15 09:00:00,44727.375,5.1
2022-06-15 10:00:00,44727.4166666667,5.1
2022-06-15 11:00:00,44727.4583333333,5.1
2022-06-15 12:00:00,44727.5,5.1
2022-06-15 13:00:00,44727.5416666667,5.1
2022-06-15 14:00:00,44727.5833333333,5.2
2022-06-15 15:00:00,44727.625,5.2
2022-06-15 16:00:00,44727.6666666667,5.2
2022-06-15 17:00:00,44727.7083333333,5.2
2022-06-15 18:00:00,44727.75,5.2
2022-06-15 19:00:00,44727.7916666667,5.2
2022-06-15 20:00:00,44727.8333333333,5.2
2022-06-15 21:00:00,44727.875,5.2
2022-06-15 22:00:00,44727.9166666667,5.2
2022-06-15 23:00:00,44727.9583333333,5.2
2022-06-16 00:00:00,44728,5.2
2022-06-16 01:00:00,44728.0416666667,5.1
2022-06-16 02:00:00,44728.0833333333,5.1
2022-06-16 03:00:00,44728.125,5.1
2022-06-16 04:00:00,44728.1666666667,5.1
2022-06-16 05:00:00,44728.2083333333,5.1
2022-06-16 06:00:00,44728.25,5.1
2022-06-16 07:00:00,44728.2916666667,5.1
2022-06-16 08:00:00,44728.3333333333,5.1
2022-06-16 09:00:00,44728.375,5.1
2022-06-16 10:00:00,44728.4166666667,5.2
2022-06-16 11:00:00,44728.4583333333,5.2
2022-06-16 12:00:00,44728.5,5.2
2022-06-16 13:00:00,44728.5416666667,5.2
2022-06-16 14:00:00,44728.5833333333,5.2
2022-06-16 15:00:00,44728.625,5.2
2022-06-16 16:00:00,44728.6666666667,5.2
2022-06-16 17:00:00,44728.7083333333,5.2
2022-06-16 18:00:00,44728.75,5.2
2022-06-16 19:00:00,44728.7916666667,5.2
2022-06-16 20:00:00,44728.8333333333,5.2
2022-06-16 21:00:00,44728.875,5.2
2022-06-16 22:00:00,44728.9166666667,5.2
2022-06-16 23:00:00,44728.9583333333,5.2
2022-06-17 00:00:00,44729,5.2
2022-06-17 01:00:00,44729.0416666667,5.2
2022-06-17 02:00:00,44729.0833333333,5.2
2022-06-17 03:00:00,44729.125,5.2
2022-06-17 04:00:00,44729.1666666667,5.2
2022-06-17 05:00:00,44729.2083333333,5.2
2022-06-17 06:00:00,44729.25,5.2
2022-06-17 07:00:00,44729.2916666667,5.2
2022-06-17 08:00:00,44729.3333333333,5.2
2022-06-17 09:00:00,44729.375,5.2
2022-06-17 10:00:00,44729.4166666667,5.2
2022-06-17 11:00:00,44729.4583333333,5.2
2022-06-17 12:00:00,44729.5,5.2
2022-06-17 13:00:00,44729.5416666667,5.2
2022-06-17 14:00:00,44729.5833333333,5.2
2022-06-17 15:00:00,44729.625,5.2
2022-06-17 16:00:00,44729.6666666667,5.2
2022-06-17 17:00:00,44729.7083333333,5.2
2022-06-17 18:00:00,44729.75,5.2
2022-06-17 19:00:00,44729.7916666667,5.2
2022-06-17 20:00:00,44729.8333333333,5.2
2022-06-17 21:00:00,44729.875,5.2
2022-06-17 22:00:00,44729.9166666667,5.2
2022-06-17 23:00:00,44729.9583333333,5.2
2022-06-18 00:00:00,44730,5.2
2022-06-18 01:00:00,44730.0416666667,5.1
2022-06-18 02:00:00,44730.0833333333,5.1
2022-06-18 03:00:00,44730.125,5.1
2022-06-18 04:00:00,44730.1666666667,5.1
2022-06-18 05:00:00,44730.2083333333,5.1
2022-06-18 06:00:00,44730.25,5.1
2022-06-18 07:00:00,44730.2916666667,5.1
2022-06-18 08:00:00,44730.3333333333,5.1
2022-06-18 09:00:00,44730.375,5.1
2022-06-18 10:00:00,44730.4166666667,5.1
2022-06-18 11:00:00,44730.4583333333,5.1
2022-06-18 12:00:00,44730.5,5.1
2022-06-18 13:00:00,44730.5416666667,5.1
2022-06-18 14:00:00,44730.5833333333,5.1
2022-06-18 15:00:00,44730.625,5.1
2022-06-18 16:00:00,44730.6666666667,5.2
2022-06-18 17:00:00,44730.7083333333,5.2
2022-06-18 18:00:00,44730.75,5.2
2022-06-18 19:00:00,44730.7916666667,5.2
2022-06-18 20:00:00,44730.8333333333,5.2
2022-06-18 21:00:00,44730.875,5.2
2022-06-18 22:00:00,44730.9166666667,5.1
2022-06-18 23:00:00,44730.9583333333,5.1
2022-06-19 00:00:00,44731,5.2
2022-06-19 01:00:00,44731.0416666667,5.1
2022-06-19 02:00:00,44731.0833333333,5.1
2022-06-19 03:00:00,44731.125,5.1
2022-06-19 04:00:00,44731.1666666667,5.1
2022-06-19 05:00:00,44731.2083333333,5.1
2022-06-19 06:00:00,44731.25,5.1
2022-06-19 07:00:00,44731.2916666667,5.1
2022-06-19 08:00:00,44731.3333333333,5.1
2022-06-19 09:00:00,44731.375,5.1
2022-06-19 10:00:00,44731.4166666667,5.1
2022-06-19 11:00:00,44731.4583333333,5.1
2022-06-19 12:00:00,44731.5,5.1
2022-06-19 13:00:00,44731.5416666667,5.1
2022-06-19 14:00:00,44731.5833333333,5.1
2022-06-19 15:00:00,44731.625,5.2
2022-06-19 16:00:00,44731.6666666667,5.2
2022-06-19 17:00:00,44731.7083333333,5.2
2022-06-19 18:00:00,44731.75,5.2
2022-06-19 19:00:00,44731.7916666667,5.2
2022-06-19 20:00:00,44731.8333333333,5.2
2022-06-19 21:00:00,44731.875,5.2
2022-06-19 22:00:00,44731.9166666667,5.1
2022-06-19 23:00:00,44731.9583333333,5.1
2022-06-20 00:00:00,44732,5.2
2022-06-20 01:00:00,44732.0416666667,5.1
2022-06-20 02:00:00,44732.0833333333,5.1
2022-06-20 03:00:00,44732.125,5.1
2022-06-20 04:00:00,44732.1666666667,5.1
2022-06-20 05:00:00,44732.2083333333,5.1
2022-06-20 06:00:00,44732.25,5.1
2022-06-20 07:00:00,44732.2916666667,5.1
2022-06-20 08:00:00,44732.3333333333,5.1
2022-06-20 09:00:00,44732.375,5.1
2022-06-20 10:00:00,44732.4166666667,5.1
2022-06-20 11:00:00,44732.4583333333,5.1
2022-06-20 12:00:00,44732.5,5.1
2022-06-20 13:00:00,44732.5416666667,
2022-06-20 14:00:00,44732.5833333333,
2022-06-20 15:00:00,44732.625,
2022-06-20 16:00:00,44732.6666666667,
2022-06-20 17:00:00,44732.7083333333,
2022-06-20 18:00:00,44732.75,
2022-06-20 19:00:00,44732.7916666667,
2022-06-20 20:00:00,44732.8333333333,
2022-06-20 21:00:00,44732.875,
2022-06-20 22:00:00,44732.9166666667,
2022-06-20 23:00:00,44732.9583333333,
2022-06-21 00:00:00,44733,
